%YAML 1.1
%TAG !u! tag:unity3d.com,2011:
--- !u!74 &7400000
AnimationClip:
  m_ObjectHideFlags: 0
  m_CorrespondingSourceObject: {fileID: 0}
  m_PrefabInstance: {fileID: 0}
  m_PrefabAsset: {fileID: 0}
  m_Name: Enemy_Boss_Idle
  serializedVersion: 6
  m_Legacy: 0
  m_Compressed: 0
  m_UseHighQualityCurve: 1
  m_RotationCurves: []
  m_CompressedRotationCurves: []
  m_EulerCurves: []
  m_PositionCurves: []
  m_ScaleCurves: []
  m_FloatCurves: []
  m_PPtrCurves:
  - curve:
    - time: 0
      value: {fileID: 21300000, guid: 742dc9dde2343b444a978d4dfeccae01, type: 3}
    - time: 0.05
      value: {fileID: 21300000, guid: 2e1f072cdd32a7c4993eacb01e4ecccd, type: 3}
    - time: 0.1
      value: {fileID: 21300000, guid: 36848314e6365904b89c5287cfbf7f3e, type: 3}
    - time: 0.15
      value: {fileID: 21300000, guid: 62109a7e9491d5a408b86ecca3df2530, type: 3}
    - time: 0.2
      value: {fileID: 21300000, guid: d70852b01779f9a49bbb50d567944593, type: 3}
    - time: 0.25
      value: {fileID: 21300000, guid: 41fb9c99645baad4eafbcff65560ccfc, type: 3}
    - time: 0.3
      value: {fileID: 21300000, guid: aaf8185a01d957541bfd909045dfd9b1, type: 3}
    - time: 0.35
      value: {fileID: 21300000, guid: da6d722104b3da94a83d0c265f0bae8f, type: 3}
    - time: 0.4
      value: {fileID: 21300000, guid: b81d23bac839f3e4e8a0276a10eda1e0, type: 3}
    - time: 0.45
      value: {fileID: 21300000, guid: 7ba83f0059ca06e479becbe59fc58e91, type: 3}
    - time: 0.5
      value: {fileID: 21300000, guid: fa3b7970a7f2fd148a188d6446203c6b, type: 3}
    - time: 0.55
      value: {fileID: 21300000, guid: a128c1e4290621541804b715e3ecb669, type: 3}
    - time: 0.6
      value: {fileID: 21300000, guid: 91928ab9ea1edb3428861a44c091c927, type: 3}
    - time: 0.65
      value: {fileID: 21300000, guid: fb3dea5f6997aea49b10d244478ec379, type: 3}
    - time: 0.7
      value: {fileID: 21300000, guid: 7a1bee38f11320645852958b6ba6bbd6, type: 3}
    - time: 0.75
      value: {fileID: 21300000, guid: d2e1ffbd2d3c9234baa91b7d1e3b0d3e, type: 3}
    - time: 0.8
      value: {fileID: 21300000, guid: 2aba011fc159cbc4f9a567f18f06ec61, type: 3}
    - time: 0.85
      value: {fileID: 21300000, guid: 6b94de2c3a2921c4194395138a59476a, type: 3}
    - time: 0.9
      value: {fileID: 21300000, guid: d07b6bfdf96209a4c9255b389da198ff, type: 3}
    - time: 0.95
      value: {fileID: 21300000, guid: 3e32a680e31f16d45a91f69d9d153122, type: 3}
    attribute: m_Sprite
    path: 
    classID: 212
    script: {fileID: 0}
  m_SampleRate: 20
  m_WrapMode: 0
  m_Bounds:
    m_Center: {x: 0, y: 0, z: 0}
    m_Extent: {x: 0, y: 0, z: 0}
  m_ClipBindingConstant:
    genericBindings:
    - serializedVersion: 2
      path: 0
      attribute: 0
      script: {fileID: 0}
      typeID: 212
      customType: 23
      isPPtrCurve: 1
    pptrCurveMapping:
    - {fileID: 21300000, guid: 742dc9dde2343b444a978d4dfeccae01, type: 3}
    - {fileID: 21300000, guid: 2e1f072cdd32a7c4993eacb01e4ecccd, type: 3}
    - {fileID: 21300000, guid: 36848314e6365904b89c5287cfbf7f3e, type: 3}
    - {fileID: 21300000, guid: 62109a7e9491d5a408b86ecca3df2530, type: 3}
    - {fileID: 21300000, guid: d70852b01779f9a49bbb50d567944593, type: 3}
    - {fileID: 21300000, guid: 41fb9c99645baad4eafbcff65560ccfc, type: 3}
    - {fileID: 21300000, guid: aaf8185a01d957541bfd909045dfd9b1, type: 3}
    - {fileID: 21300000, guid: da6d722104b3da94a83d0c265f0bae8f, type: 3}
    - {fileID: 21300000, guid: b81d23bac839f3e4e8a0276a10eda1e0, type: 3}
    - {fileID: 21300000, guid: 7ba83f0059ca06e479becbe59fc58e91, type: 3}
    - {fileID: 21300000, guid: fa3b7970a7f2fd148a188d6446203c6b, type: 3}
    - {fileID: 21300000, guid: a128c1e4290621541804b715e3ecb669, type: 3}
    - {fileID: 21300000, guid: 91928ab9ea1edb3428861a44c091c927, type: 3}
    - {fileID: 21300000, guid: fb3dea5f6997aea49b10d244478ec379, type: 3}
    - {fileID: 21300000, guid: 7a1bee38f11320645852958b6ba6bbd6, type: 3}
    - {fileID: 21300000, guid: d2e1ffbd2d3c9234baa91b7d1e3b0d3e, type: 3}
    - {fileID: 21300000, guid: 2aba011fc159cbc4f9a567f18f06ec61, type: 3}
    - {fileID: 21300000, guid: 6b94de2c3a2921c4194395138a59476a, type: 3}
    - {fileID: 21300000, guid: d07b6bfdf96209a4c9255b389da198ff, type: 3}
    - {fileID: 21300000, guid: 3e32a680e31f16d45a91f69d9d153122, type: 3}
  m_AnimationClipSettings:
    serializedVersion: 2
    m_AdditiveReferencePoseClip: {fileID: 0}
    m_AdditiveReferencePoseTime: 0
    m_StartTime: 0
    m_StopTime: 1
    m_OrientationOffsetY: 0
    m_Level: 0
    m_CycleOffset: 0
    m_HasAdditiveReferencePose: 0
    m_LoopTime: 1
    m_LoopBlend: 0
    m_LoopBlendOrientation: 0
    m_LoopBlendPositionY: 0
    m_LoopBlendPositionXZ: 0
    m_KeepOriginalOrientation: 0
    m_KeepOriginalPositionY: 1
    m_KeepOriginalPositionXZ: 0
    m_HeightFromFeet: 0
    m_Mirror: 0
  m_EditorCurves: []
  m_EulerEditorCurves: []
  m_HasGenericRootTransform: 0
  m_HasMotionFloatCurves: 0
  m_Events: []
